{"help": "https://portal.opendata.dk/api/3/action/help_show?name=datastore_search", "success": true, "result": {"include_total": true, "resource_id": "b3eeb0ff-c8a8-4824-99d6-e0a3747c8b0d", "fields": [{"type": "int", "id": "_id"}, {"type": "int4", "id": "REPORT_ID"}, {"type": "timestamp", "id": "TIMESTAMP"}, {"type": "text", "id": "status"}, {"type": "int4", "id": "avgMeasuredTime"}, {"type": "int4", "id": "medianMeasuredTime"}, {"type": "int4", "id": "vehicleCount"}, {"type": "int4", "id": "avgSpeed"}], "records_format": "objects", "records": [{"_id":375,"REPORT_ID":204087,"TIMESTAMP":"2019-11-19T08:25:00","status":"OK","avgMeasuredTime":181,"medianMeasuredTime":181,"vehicleCount":0,"avgSpeed":18},{"_id":409,"REPORT_ID":197489,"TIMESTAMP":"2019-11-19T08:25:00","status":"OK","avgMeasuredTime":48,"medianMeasuredTime":48,"vehicleCount":5,"avgSpeed":83},{"_id":326,"REPORT_ID":190908,"TIMESTAMP":"2019-11-19T08:25:00","status":"OK","avgMeasuredTime":106,"medianMeasuredTime":106,"vehicleCount":7,"avgSpeed":46},{"_id":334,"REPORT_ID":195392,"TIMESTAMP":"2019-11-19T08:25:00","status":"OK","avgMeasuredTime":93,"medianMeasuredTime":93,"vehicleCount":1,"avgSpeed":33},{"_id":283,"REPORT_ID":184892,"TIMESTAMP":"2019-11-19T08:25:00","status":"OK","avgMeasuredTime":105,"medianMeasuredTime":105,"vehicleCount":5,"avgSpeed":34},{"_id":400,"REPORT_ID":206184,"TIMESTAMP":"2019-11-19T08:25:00","status":"OK","avgMeasuredTime":0,"medianMeasuredTime":0,"vehicleCount":0,"avgSpeed":0},{"_id":257,"REPORT_ID":201775,"TIMESTAMP":"2019-11-19T08:25:00","status":"OK","avgMeasuredTime":246,"medianMeasuredTime":246,"vehicleCount":0,"avgSpeed":11},{"_id":188,"REPORT_ID":180952,"TIMESTAMP":"2019-11-19T08:26:00","status":"OK","avgMeasuredTime":86,"medianMeasuredTime":86,"vehicleCount":10,"avgSpeed":33},{"_id":66,"REPORT_ID":173011,"TIMESTAMP":"2019-11-19T08:25:00","status":"OK","avgMeasuredTime":0,"medianMeasuredTime":0,"vehicleCount":0,"avgSpeed":0},{"_id":246,"REPORT_ID":187642,"TIMESTAMP":"2019-11-19T08:26:00","status":"OK","avgMeasuredTime":69,"medianMeasuredTime":69,"vehicleCount":4,"avgSpeed":37},{"_id":8,"REPORT_ID":181331,"TIMESTAMP":"2019-11-19T08:26:00","status":"OK","avgMeasuredTime":61,"medianMeasuredTime":61,"vehicleCount":9,"avgSpeed":54},{"_id":443,"REPORT_ID":181168,"TIMESTAMP":"2019-11-19T08:26:00","status":"OK","avgMeasuredTime":34,"medianMeasuredTime":34,"vehicleCount":14,"avgSpeed":54},{"_id":258,"REPORT_ID":181034,"TIMESTAMP":"2019-11-19T08:26:00","status":"OK","avgMeasuredTime":51,"medianMeasuredTime":51,"vehicleCount":14,"avgSpeed":31},{"_id":128,"REPORT_ID":158684,"TIMESTAMP":"2019-11-19T08:25:00","status":"OK","avgMeasuredTime":221,"medianMeasuredTime":221,"vehicleCount":5,"avgSpeed":109},{"_id":386,"REPORT_ID":178875,"TIMESTAMP":"2019-11-19T08:26:00","status":"OK","avgMeasuredTime":56,"medianMeasuredTime":56,"vehicleCount":11,"avgSpeed":35},{"_id":395,"REPORT_ID":180898,"TIMESTAMP":"2019-11-19T08:26:00","status":"OK","avgMeasuredTime":72,"medianMeasuredTime":72,"vehicleCount":8,"avgSpeed":24},{"_id":131,"REPORT_ID":181006,"TIMESTAMP":"2019-11-19T08:26:00","status":"OK","avgMeasuredTime":40,"medianMeasuredTime":40,"vehicleCount":13,"avgSpeed":54},{"_id":215,"REPORT_ID":197977,"TIMESTAMP":"2019-11-19T08:25:00","status":"OK","avgMeasuredTime":120,"medianMeasuredTime":120,"vehicleCount":4,"avgSpeed":61},{"_id":118,"REPORT_ID":179444,"TIMESTAMP":"2019-11-19T08:25:00","status":"OK","avgMeasuredTime":60,"medianMeasuredTime":60,"vehicleCount":4,"avgSpeed":52},{"_id":5,"REPORT_ID":204273,"TIMESTAMP":"2019-11-19T08:25:00","status":"OK","avgMeasuredTime":93,"medianMeasuredTime":93,"vehicleCount":3,"avgSpeed":22},{"_id":331,"REPORT_ID":179202,"TIMESTAMP":"2019-11-19T08:25:00","status":"OK","avgMeasuredTime":57,"medianMeasuredTime":57,"vehicleCount":17,"avgSpeed":33},{"_id":387,"REPORT_ID":197652,"TIMESTAMP":"2019-11-19T08:25:00","status":"OK","avgMeasuredTime":115,"medianMeasuredTime":115,"vehicleCount":8,"avgSpeed":50},{"_id":429,"REPORT_ID":193430,"TIMESTAMP":"2019-11-19T08:25:00","status":"OK","avgMeasuredTime":0,"medianMeasuredTime":0,"vehicleCount":0,"avgSpeed":0},{"_id":155,"REPORT_ID":194905,"TIMESTAMP":"2019-11-19T08:26:00","status":"OK","avgMeasuredTime":0,"medianMeasuredTime":0,"vehicleCount":0,"avgSpeed":0},{"_id":418,"REPORT_ID":206051,"TIMESTAMP":"2019-11-19T08:26:00","status":"OK","avgMeasuredTime":94,"medianMeasuredTime":94,"vehicleCount":4,"avgSpeed":21},{"_id":274,"REPORT_ID":178713,"TIMESTAMP":"2019-11-19T08:26:00","status":"OK","avgMeasuredTime":23,"medianMeasuredTime":23,"vehicleCount":22,"avgSpeed":57},{"_id":371,"REPORT_ID":180601,"TIMESTAMP":"2019-11-19T08:26:00","status":"OK","avgMeasuredTime":84,"medianMeasuredTime":84,"vehicleCount":12,"avgSpeed":63},{"_id":417,"REPORT_ID":206157,"TIMESTAMP":"2019-11-19T08:26:00","status":"OK","avgMeasuredTime":84,"medianMeasuredTime":84,"vehicleCount":3,"avgSpeed":20},{"_id":198,"REPORT_ID":192600,"TIMESTAMP":"2019-11-19T08:26:00","status":"OK","avgMeasuredTime":78,"medianMeasuredTime":78,"vehicleCount":16,"avgSpeed":55},{"_id":426,"REPORT_ID":184866,"TIMESTAMP":"2019-11-19T08:26:00","status":"OK","avgMeasuredTime":87,"medianMeasuredTime":87,"vehicleCount":5,"avgSpeed":40},{"_id":273,"REPORT_ID":201291,"TIMESTAMP":"2019-11-19T08:26:00","status":"OK","avgMeasuredTime":88,"medianMeasuredTime":88,"vehicleCount":8,"avgSpeed":37},{"_id":210,"REPORT_ID":181277,"TIMESTAMP":"2019-11-19T08:26:00","status":"OK","avgMeasuredTime":57,"medianMeasuredTime":57,"vehicleCount":13,"avgSpeed":32},{"_id":356,"REPORT_ID":187430,"TIMESTAMP":"2019-11-19T08:26:00","status":"OK","avgMeasuredTime":116,"medianMeasuredTime":116,"vehicleCount":15,"avgSpeed":27},{"_id":391,"REPORT_ID":182792,"TIMESTAMP":"2019-11-19T08:25:00","status":"OK","avgMeasuredTime":119,"medianMeasuredTime":119,"vehicleCount":7,"avgSpeed":41},{"_id":91,"REPORT_ID":183037,"TIMESTAMP":"2019-11-19T08:25:00","status":"OK","avgMeasuredTime":148,"medianMeasuredTime":148,"vehicleCount":12,"avgSpeed":28},{"_id":433,"REPORT_ID":195204,"TIMESTAMP":"2019-11-19T08:25:00","status":"OK","avgMeasuredTime":92,"medianMeasuredTime":92,"vehicleCount":6,"avgSpeed":32},{"_id":397,"REPORT_ID":204300,"TIMESTAMP":"2019-11-19T08:25:00","status":"OK","avgMeasuredTime":51,"medianMeasuredTime":51,"vehicleCount":2,"avgSpeed":37},{"_id":71,"REPORT_ID":197679,"TIMESTAMP":"2019-11-19T08:25:00","status":"OK","avgMeasuredTime":113,"medianMeasuredTime":113,"vehicleCount":10,"avgSpeed":37},{"_id":158,"REPORT_ID":193239,"TIMESTAMP":"2019-11-19T08:25:00","status":"OK","avgMeasuredTime":59,"medianMeasuredTime":59,"vehicleCount":3,"avgSpeed":45},{"_id":25,"REPORT_ID":204140,"TIMESTAMP":"2019-11-19T08:25:00","status":"OK","avgMeasuredTime":76,"medianMeasuredTime":76,"vehicleCount":2,"avgSpeed":42},{"_id":72,"REPORT_ID":192466,"TIMESTAMP":"2019-11-19T08:25:00","status":"OK","avgMeasuredTime":151,"medianMeasuredTime":151,"vehicleCount":4,"avgSpeed":54},{"_id":190,"REPORT_ID":186953,"TIMESTAMP":"2019-11-19T08:25:00","status":"OK","avgMeasuredTime":76,"medianMeasuredTime":76,"vehicleCount":1,"avgSpeed":37},{"_id":165,"REPORT_ID":201615,"TIMESTAMP":"2019-11-19T08:25:00","status":"OK","avgMeasuredTime":690,"medianMeasuredTime":690,"vehicleCount":8,"avgSpeed":68},{"_id":319,"REPORT_ID":195124,"TIMESTAMP":"2019-11-19T08:25:00","status":"OK","avgMeasuredTime":69,"medianMeasuredTime":69,"vehicleCount":6,"avgSpeed":52},{"_id":121,"REPORT_ID":187562,"TIMESTAMP":"2019-11-19T08:26:00","status":"OK","avgMeasuredTime":118,"medianMeasuredTime":118,"vehicleCount":4,"avgSpeed":36},{"_id":227,"REPORT_ID":187933,"TIMESTAMP":"2019-11-19T08:25:00","status":"OK","avgMeasuredTime":63,"medianMeasuredTime":63,"vehicleCount":1,"avgSpeed":39},{"_id":89,"REPORT_ID":197434,"TIMESTAMP":"2019-11-19T08:25:00","status":"OK","avgMeasuredTime":74,"medianMeasuredTime":74,"vehicleCount":11,"avgSpeed":52},{"_id":62,"REPORT_ID":204034,"TIMESTAMP":"2019-11-19T08:25:00","status":"OK","avgMeasuredTime":63,"medianMeasuredTime":63,"vehicleCount":0,"avgSpeed":36},{"_id":272,"REPORT_ID":197598,"TIMESTAMP":"2019-11-19T08:25:00","status":"OK","avgMeasuredTime":45,"medianMeasuredTime":45,"vehicleCount":7,"avgSpeed":44},{"_id":416,"REPORT_ID":180790,"TIMESTAMP":"2019-11-19T08:26:00","status":"OK","avgMeasuredTime":21,"medianMeasuredTime":21,"vehicleCount":9,"avgSpeed":49},{"_id":73,"REPORT_ID":187986,"TIMESTAMP":"2019-11-19T08:25:00","status":"OK","avgMeasuredTime":136,"medianMeasuredTime":136,"vehicleCount":1,"avgSpeed":18},{"_id":97,"REPORT_ID":190529,"TIMESTAMP":"2019-11-19T08:25:00","status":"OK","avgMeasuredTime":30,"medianMeasuredTime":30,"vehicleCount":14,"avgSpeed":63},{"_id":303,"REPORT_ID":187138,"TIMESTAMP":"2019-11-19T08:25:00","status":"OK","avgMeasuredTime":76,"medianMeasuredTime":76,"vehicleCount":4,"avgSpeed":46},{"_id":159,"REPORT_ID":190799,"TIMESTAMP":"2019-11-19T08:25:00","status":"OK","avgMeasuredTime":125,"medianMeasuredTime":125,"vehicleCount":2,"avgSpeed":71},{"_id":135,"REPORT_ID":201373,"TIMESTAMP":"2019-11-19T08:25:00","status":"OK","avgMeasuredTime":125,"medianMeasuredTime":125,"vehicleCount":1,"avgSpeed":49},{"_id":316,"REPORT_ID":192893,"TIMESTAMP":"2019-11-19T08:25:00","status":"OK","avgMeasuredTime":79,"medianMeasuredTime":79,"vehicleCount":0,"avgSpeed":42},{"_id":262,"REPORT_ID":192734,"TIMESTAMP":"2019-11-19T08:25:00","status":"OK","avgMeasuredTime":70,"medianMeasuredTime":70,"vehicleCount":4,"avgSpeed":46},{"_id":300,"REPORT_ID":187695,"TIMESTAMP":"2019-11-19T08:25:00","status":"OK","avgMeasuredTime":214,"medianMeasuredTime":214,"vehicleCount":0,"avgSpeed":12},{"_id":197,"REPORT_ID":188172,"TIMESTAMP":"2019-11-19T08:25:00","status":"OK","avgMeasuredTime":90,"medianMeasuredTime":90,"vehicleCount":1,"avgSpeed":22},{"_id":52,"REPORT_ID":187721,"TIMESTAMP":"2019-11-19T08:26:00","status":"OK","avgMeasuredTime":104,"medianMeasuredTime":104,"vehicleCount":2,"avgSpeed":23},{"_id":378,"REPORT_ID":184675,"TIMESTAMP":"2019-11-19T08:25:00","status":"OK","avgMeasuredTime":80,"medianMeasuredTime":80,"vehicleCount":1,"avgSpeed":52},{"_id":183,"REPORT_ID":181305,"TIMESTAMP":"2019-11-19T08:26:00","status":"OK","avgMeasuredTime":99,"medianMeasuredTime":99,"vehicleCount":7,"avgSpeed":34},{"_id":45,"REPORT_ID":194878,"TIMESTAMP":"2019-11-19T08:26:00","status":"OK","avgMeasuredTime":0,"medianMeasuredTime":0,"vehicleCount":0,"avgSpeed":0},{"_id":176,"REPORT_ID":182683,"TIMESTAMP":"2019-11-19T08:26:00","status":"OK","avgMeasuredTime":133,"medianMeasuredTime":133,"vehicleCount":7,"avgSpeed":22},{"_id":379,"REPORT_ID":190501,"TIMESTAMP":"2019-11-19T08:25:00","status":"OK","avgMeasuredTime":43,"medianMeasuredTime":43,"vehicleCount":18,"avgSpeed":70},{"_id":329,"REPORT_ID":187827,"TIMESTAMP":"2019-11-19T08:25:00","status":"OK","avgMeasuredTime":108,"medianMeasuredTime":108,"vehicleCount":1,"avgSpeed":22},{"_id":141,"REPORT_ID":210013,"TIMESTAMP":"2019-11-19T08:25:00","status":"OK","avgMeasuredTime":236,"medianMeasuredTime":236,"vehicleCount":1,"avgSpeed":44},{"_id":220,"REPORT_ID":206449,"TIMESTAMP":"2019-11-19T08:25:00","status":"OK","avgMeasuredTime":38,"medianMeasuredTime":38,"vehicleCount":3,"avgSpeed":43},{"_id":29,"REPORT_ID":201802,"TIMESTAMP":"2019-11-19T08:25:00","status":"OK","avgMeasuredTime":164,"medianMeasuredTime":164,"vehicleCount":4,"avgSpeed":31},{"_id":249,"REPORT_ID":190744,"TIMESTAMP":"2019-11-19T08:25:00","status":"OK","avgMeasuredTime":46,"medianMeasuredTime":46,"vehicleCount":28,"avgSpeed":63},{"_id":145,"REPORT_ID":180735,"TIMESTAMP":"2019-11-19T08:25:00","status":"OK","avgMeasuredTime":0,"medianMeasuredTime":0,"vehicleCount":0,"avgSpeed":0},{"_id":200,"REPORT_ID":210199,"TIMESTAMP":"2019-11-19T08:25:00","status":"OK","avgMeasuredTime":84,"medianMeasuredTime":84,"vehicleCount":0,"avgSpeed":48},{"_id":213,"REPORT_ID":198301,"TIMESTAMP":"2019-11-19T08:25:00","status":"OK","avgMeasuredTime":46,"medianMeasuredTime":46,"vehicleCount":6,"avgSpeed":39},{"_id":36,"REPORT_ID":206263,"TIMESTAMP":"2019-11-19T08:25:00","status":"OK","avgMeasuredTime":74,"medianMeasuredTime":74,"vehicleCount":0,"avgSpeed":23},{"_id":281,"REPORT_ID":195923,"TIMESTAMP":"2019-11-19T08:25:00","status":"OK","avgMeasuredTime":89,"medianMeasuredTime":89,"vehicleCount":4,"avgSpeed":61},{"_id":282,"REPORT_ID":158446,"TIMESTAMP":"2019-11-19T08:25:00","status":"OK","avgMeasuredTime":0,"medianMeasuredTime":0,"vehicleCount":0,"avgSpeed":0},{"_id":221,"REPORT_ID":204060,"TIMESTAMP":"2019-11-19T08:25:00","status":"OK","avgMeasuredTime":112,"medianMeasuredTime":112,"vehicleCount":2,"avgSpeed":21},{"_id":265,"REPORT_ID":203875,"TIMESTAMP":"2019-11-19T08:25:00","status":"OK","avgMeasuredTime":1769,"medianMeasuredTime":1769,"vehicleCount":0,"avgSpeed":2},{"_id":30,"REPORT_ID":195150,"TIMESTAMP":"2019-11-19T08:25:00","status":"OK","avgMeasuredTime":64,"medianMeasuredTime":64,"vehicleCount":4,"avgSpeed":57},{"_id":46,"REPORT_ID":186979,"TIMESTAMP":"2019-11-19T08:25:00","status":"OK","avgMeasuredTime":294,"medianMeasuredTime":294,"vehicleCount":2,"avgSpeed":10},{"_id":352,"REPORT_ID":189994,"TIMESTAMP":"2019-11-19T08:25:00","status":"OK","avgMeasuredTime":88,"medianMeasuredTime":88,"vehicleCount":2,"avgSpeed":17},{"_id":372,"REPORT_ID":203689,"TIMESTAMP":"2019-11-19T08:25:00","status":"OK","avgMeasuredTime":174,"medianMeasuredTime":174,"vehicleCount":0,"avgSpeed":32},{"_id":16,"REPORT_ID":179064,"TIMESTAMP":"2019-11-19T08:25:00","status":"OK","avgMeasuredTime":31,"medianMeasuredTime":31,"vehicleCount":18,"avgSpeed":41},{"_id":242,"REPORT_ID":195578,"TIMESTAMP":"2019-11-19T08:25:00","status":"OK","avgMeasuredTime":85,"medianMeasuredTime":85,"vehicleCount":1,"avgSpeed":45},{"_id":308,"REPORT_ID":192760,"TIMESTAMP":"2019-11-19T08:25:00","status":"OK","avgMeasuredTime":64,"medianMeasuredTime":64,"vehicleCount":0,"avgSpeed":49},{"_id":142,"REPORT_ID":209827,"TIMESTAMP":"2019-11-19T08:25:00","status":"OK","avgMeasuredTime":49,"medianMeasuredTime":49,"vehicleCount":2,"avgSpeed":60},{"_id":143,"REPORT_ID":197626,"TIMESTAMP":"2019-11-19T08:25:00","status":"OK","avgMeasuredTime":124,"medianMeasuredTime":124,"vehicleCount":14,"avgSpeed":46},{"_id":342,"REPORT_ID":184998,"TIMESTAMP":"2019-11-19T08:25:00","status":"OK","avgMeasuredTime":66,"medianMeasuredTime":66,"vehicleCount":6,"avgSpeed":26},{"_id":85,"REPORT_ID":190285,"TIMESTAMP":"2019-11-19T08:20:00","status":"OK","avgMeasuredTime":90,"medianMeasuredTime":90,"vehicleCount":0,"avgSpeed":29},{"_id":301,"REPORT_ID":187960,"TIMESTAMP":"2019-11-19T08:25:00","status":"OK","avgMeasuredTime":61,"medianMeasuredTime":61,"vehicleCount":1,"avgSpeed":42},{"_id":269,"REPORT_ID":206104,"TIMESTAMP":"2019-11-19T08:25:00","status":"OK","avgMeasuredTime":292,"medianMeasuredTime":292,"vehicleCount":0,"avgSpeed":6},{"_id":41,"REPORT_ID":198139,"TIMESTAMP":"2019-11-19T08:25:00","status":"OK","avgMeasuredTime":132,"medianMeasuredTime":132,"vehicleCount":5,"avgSpeed":40},{"_id":21,"REPORT_ID":187218,"TIMESTAMP":"2019-11-19T08:25:00","status":"OK","avgMeasuredTime":157,"medianMeasuredTime":157,"vehicleCount":5,"avgSpeed":14},{"_id":275,"REPORT_ID":197788,"TIMESTAMP":"2019-11-19T08:25:00","status":"OK","avgMeasuredTime":93,"medianMeasuredTime":93,"vehicleCount":3,"avgSpeed":50},{"_id":266,"REPORT_ID":184839,"TIMESTAMP":"2019-11-19T08:25:00","status":"OK","avgMeasuredTime":73,"medianMeasuredTime":73,"vehicleCount":1,"avgSpeed":24},{"_id":117,"REPORT_ID":187350,"TIMESTAMP":"2019-11-19T08:25:00","status":"OK","avgMeasuredTime":0,"medianMeasuredTime":0,"vehicleCount":0,"avgSpeed":0},{"_id":373,"REPORT_ID":190637,"TIMESTAMP":"2019-11-19T08:25:00","status":"OK","avgMeasuredTime":30,"medianMeasuredTime":30,"vehicleCount":15,"avgSpeed":70},{"_id":380,"REPORT_ID":201319,"TIMESTAMP":"2019-11-19T08:25:00","status":"OK","avgMeasuredTime":58,"medianMeasuredTime":58,"vehicleCount":2,"avgSpeed":33},{"_id":201,"REPORT_ID":203901,"TIMESTAMP":"2019-11-19T08:25:00","status":"OK","avgMeasuredTime":1771,"medianMeasuredTime":1771,"vehicleCount":0,"avgSpeed":2},{"_id":236,"REPORT_ID":201828,"TIMESTAMP":"2019-11-19T08:25:00","status":"OK","avgMeasuredTime":110,"medianMeasuredTime":110,"vehicleCount":1,"avgSpeed":46}], "_links": {"start": "/api/3/action/datastore_search?resource_id=b3eeb0ff-c8a8-4824-99d6-e0a3747c8b0d", "next": "/api/3/action/datastore_search?offset=100&resource_id=b3eeb0ff-c8a8-4824-99d6-e0a3747c8b0d"}, "total": 449}}